********* Thread: 8  Policy: 0 *********************

********* Page Size: 4  ************
###### Address Length: 8  ######
Hits: 897
Misses: 110
Real: 0m0.015s

###### Address Length: 10  ######
Hits: 895
Misses: 110
Real: 0m0.013s

###### Address Length: 16  ######
Hits: 894
Misses: 109
Real: 0m0.055s

###### Address Length: 24  ######
Hits: 910
Misses: 123
Real: 0m10.570s

********* Page Size: 8  ************
###### Address Length: 8  ######
Hits: 900
Misses: 106
Real: 0m0.013s

###### Address Length: 10  ######
Hits: 902
Misses: 107
Real: 0m0.013s

###### Address Length: 16  ######
Hits: 896
Misses: 119
Real: 0m0.038s

###### Address Length: 24  ######
Hits: 901
Misses: 124
Real: 0m7.042s

********* Page Size: 16  ************
###### Address Length: 8  ######
Hits: 915
Misses: 110
Real: 0m0.012s

###### Address Length: 10  ######
Hits: 905
Misses: 111
Real: 0m0.013s

###### Address Length: 16  ######
Hits: 900
Misses: 122
Real: 0m0.030s

###### Address Length: 24  ######
Hits: 910
Misses: 109
Real: 0m4.706s

********* Page Size: 32  ************
###### Address Length: 8  ######
Hits: 901
Misses: 114
Real: 0m0.013s

###### Address Length: 10  ######
Hits: 897
Misses: 111
Real: 0m0.013s

###### Address Length: 16  ######
Hits: 900
Misses: 116
Real: 0m0.024s

###### Address Length: 24  ######
Hits: 911
Misses: 120
Real: 0m3.451s

********* Page Size: 64  ************
###### Address Length: 8  ######
Hits: 904
Misses: 114
Real: 0m0.013s

###### Address Length: 10  ######
Hits: 893
Misses: 113
Real: 0m0.012s

###### Address Length: 16  ######
Hits: 904
Misses: 113
Real: 0m0.023s

###### Address Length: 24  ######
Hits: 900
Misses: 116
Real: 0m2.626s

********* Page Size: 128  ************
###### Address Length: 8  ######
Hits: 896
Misses: 120
Real: 0m0.013s

###### Address Length: 10  ######
Hits: 889
Misses: 113
Real: 0m0.012s

###### Address Length: 16  ######
Hits: 898
Misses: 112
Real: 0m0.021s

###### Address Length: 24  ######
Hits: 901
Misses: 111
Real: 0m2.142s

