********* Thread: 4  Policy: 1 *********************

********* Page Size: 4  ************
###### Address Length: 8  ######
Hits: 500
Misses: 104
Real: 0m0.007s

###### Address Length: 10  ######
Hits: 506
Misses: 108
Real: 0m0.007s

###### Address Length: 16  ######
Hits: 496
Misses: 120
Real: 0m0.048s

###### Address Length: 24  ######
Hits: 498
Misses: 104
Real: 0m10.612s

********* Page Size: 8  ************
###### Address Length: 8  ######
Hits: 510
Misses: 104
Real: 0m0.007s

###### Address Length: 10  ######
Hits: 508
Misses: 112
Real: 0m0.007s

###### Address Length: 16  ######
Hits: 507
Misses: 106
Real: 0m0.036s

###### Address Length: 24  ######
Hits: 500
Misses: 109
Real: 0m6.940s

********* Page Size: 16  ************
###### Address Length: 8  ######
Hits: 503
Misses: 110
Real: 0m0.008s

###### Address Length: 10  ######
Hits: 496
Misses: 106
Real: 0m0.008s

###### Address Length: 16  ######
Hits: 495
Misses: 111
Real: 0m0.025s

###### Address Length: 24  ######
Hits: 504
Misses: 105
Real: 0m4.710s

********* Page Size: 32  ************
###### Address Length: 8  ######
Hits: 509
Misses: 103
Real: 0m0.007s

###### Address Length: 10  ######
Hits: 518
Misses: 108
Real: 0m0.008s

###### Address Length: 16  ######
Hits: 489
Misses: 105
Real: 0m0.021s

###### Address Length: 24  ######
Hits: 502
Misses: 106
Real: 0m3.402s

********* Page Size: 64  ************
###### Address Length: 8  ######
Hits: 496
Misses: 113
Real: 0m0.007s

###### Address Length: 10  ######
Hits: 501
Misses: 109
Real: 0m0.007s

###### Address Length: 16  ######
Hits: 492
Misses: 110
Real: 0m0.017s

###### Address Length: 24  ######
Hits: 495
Misses: 107
Real: 0m2.634s

********* Page Size: 128  ************
###### Address Length: 8  ######
Hits: 501
Misses: 111
Real: 0m0.007s

###### Address Length: 10  ######
Hits: 507
Misses: 107
Real: 0m0.007s

###### Address Length: 16  ######
Hits: 498
Misses: 111
Real: 0m0.015s

###### Address Length: 24  ######
Hits: 509
Misses: 113
Real: 0m2.106s

