********* Thread: 1  Policy: 0 *********************

********* Page Size: 4  ************
###### Address Length: 8  ######
Hits: 196
Misses: 100
Real: 0m0.005s

###### Address Length: 10  ######
Hits: 196
Misses: 100
Real: 0m0.005s

###### Address Length: 16  ######
Hits: 196
Misses: 100
Real: 0m0.047s

###### Address Length: 24  ######
Hits: 196
Misses: 100
Real: 0m10.522s

********* Page Size: 8  ************
###### Address Length: 8  ######
Hits: 196
Misses: 100
Real: 0m0.004s

###### Address Length: 10  ######
Hits: 196
Misses: 100
Real: 0m0.005s

###### Address Length: 16  ######
Hits: 196
Misses: 100
Real: 0m0.030s

###### Address Length: 24  ######
Hits: 196
Misses: 100
Real: 0m6.962s

********* Page Size: 16  ************
###### Address Length: 8  ######
Hits: 196
Misses: 100
Real: 0m0.005s

###### Address Length: 10  ######
Hits: 196
Misses: 100
Real: 0m0.005s

###### Address Length: 16  ######
Hits: 196
Misses: 100
Real: 0m0.022s

###### Address Length: 24  ######
Hits: 196
Misses: 100
Real: 0m4.906s

********* Page Size: 32  ************
###### Address Length: 8  ######
Hits: 196
Misses: 100
Real: 0m0.004s

###### Address Length: 10  ######
Hits: 196
Misses: 100
Real: 0m0.005s

###### Address Length: 16  ######
Hits: 196
Misses: 100
Real: 0m0.018s

###### Address Length: 24  ######
Hits: 196
Misses: 100
Real: 0m3.408s

********* Page Size: 64  ************
###### Address Length: 8  ######
Hits: 196
Misses: 100
Real: 0m0.005s

###### Address Length: 10  ######
Hits: 196
Misses: 100
Real: 0m0.005s

###### Address Length: 16  ######
Hits: 196
Misses: 100
Real: 0m0.014s

###### Address Length: 24  ######
Hits: 196
Misses: 100
Real: 0m2.632s

********* Page Size: 128  ************
###### Address Length: 8  ######
Hits: 196
Misses: 100
Real: 0m0.005s

###### Address Length: 10  ######
Hits: 196
Misses: 100
Real: 0m0.005s

###### Address Length: 16  ######
Hits: 196
Misses: 100
Real: 0m0.013s

###### Address Length: 24  ######
Hits: 196
Misses: 100
Real: 0m2.116s

